<?xml version="1.0" encoding="UTF-8" standalone="no"?>
<svg
   xmlns:dc="http://purl.org/dc/elements/1.1/"
   xmlns:cc="http://creativecommons.org/ns#"
   xmlns:rdf="http://www.w3.org/1999/02/22-rdf-syntax-ns#"
   xmlns:svg="http://www.w3.org/2000/svg"
   xmlns="http://www.w3.org/2000/svg"
   xmlns:xlink="http://www.w3.org/1999/xlink"
   xmlns:sodipodi="http://sodipodi.sourceforge.net/DTD/sodipodi-0.dtd"
   xmlns:inkscape="http://www.inkscape.org/namespaces/inkscape"
   inkscape:export-ydpi="96"
   inkscape:export-xdpi="96"
   inkscape:export-filename="/home/yarmo/dev/web/temp/logo_5_circled.png"
   sodipodi:docname="logo_5_favicon.svg"
   inkscape:version="1.0 (4035a4fb49, 2020-05-01)"
   id="svg8"
   version="1.1"
   viewBox="0 0 270.93333 270.93334"
   height="1024"
   width="1024">
  <defs
     id="defs2">
    <linearGradient
       id="linearGradient879"
       inkscape:collect="always">
      <stop
         id="stop875"
         offset="0"
         style="stop-color:#9175f5;stop-opacity:1" />
      <stop
         id="stop877"
         offset="1"
         style="stop-color:#338ebf;stop-opacity:1" />
    </linearGradient>
    <linearGradient
       id="linearGradient871"
       inkscape:collect="always">
      <stop
         id="stop867"
         offset="0"
         style="stop-color:#6fbee8;stop-opacity:1" />
      <stop
         id="stop869"
         offset="1"
         style="stop-color:#338ebf;stop-opacity:1" />
    </linearGradient>
    <rect
       id="rect845"
       height="73.136201"
       width="242.83406"
       y="97.921372"
       x="9.5543264" />
    <rect
       id="rect839"
       height="78.06641"
       width="232.74502"
       y="91.503966"
       x="21.411714" />
    <linearGradient
       gradientUnits="userSpaceOnUse"
       y2="210.42851"
       x2="197.62891"
       y1="50.317226"
       x1="86.00695"
       id="linearGradient873"
       xlink:href="#linearGradient871"
       inkscape:collect="always"
       gradientTransform="matrix(1.3474163,0,0,1.3474163,-52.769558,-14.294153)" />
    <linearGradient
       gradientUnits="userSpaceOnUse"
       y2="212.18591"
       x2="85.358345"
       y1="45.502323"
       x1="183.57852"
       id="linearGradient881"
       xlink:href="#linearGradient879"
       inkscape:collect="always"
       gradientTransform="matrix(3.7795275,0,0,3.7795275,-15.999998,48.000003)" />
    <linearGradient
       y2="212.18591"
       x2="85.358345"
       y1="45.502323"
       x1="183.57852"
       gradientTransform="matrix(1.3474163,0,0,1.3474163,-52.769558,-14.294153)"
       gradientUnits="userSpaceOnUse"
       id="linearGradient1685"
       xlink:href="#linearGradient879"
       inkscape:collect="always" />
  </defs>
  <sodipodi:namedview
     showguides="true"
     inkscape:window-maximized="1"
     inkscape:window-y="36"
     inkscape:window-x="0"
     inkscape:window-height="1015"
     inkscape:window-width="1920"
     units="px"
     showgrid="true"
     inkscape:document-rotation="0"
     inkscape:current-layer="layer1"
     inkscape:document-units="px"
     inkscape:cy="272.17326"
     inkscape:cx="-42.56473"
     inkscape:zoom="0.49497475"
     inkscape:pageshadow="2"
     inkscape:pageopacity="0.0"
     borderopacity="1.0"
     bordercolor="#666666"
     pagecolor="#ffffff"
     id="base">
    <inkscape:grid
       empspacing="8"
       id="grid2770"
       type="xygrid" />
  </sodipodi:namedview>
  <metadata
     id="metadata5">
    <rdf:RDF>
      <cc:Work
         rdf:about="">
        <dc:format>image/svg+xml</dc:format>
        <dc:type
           rdf:resource="http://purl.org/dc/dcmitype/StillImage" />
        <dc:title />
      </cc:Work>
    </rdf:RDF>
  </metadata>
  <g
     style="display:inline"
     inkscape:label="Logo"
     id="layer1"
     inkscape:groupmode="layer">
    <path
       d="m 165.52154,31.318848 c -9.81147,9.3e-5 -17.76522,7.953841 -17.76531,17.765312 -2e-5,5.929861 2.94259,11.344539 7.64807,14.604617 1.35474,0.938601 2.13448,1.047362 2.31494,2.515809 0.18047,1.468447 -1.83105,2.828919 -1.83105,2.828919 L 63.101866,141.20212 c -8.341709,6.48872 -13.221042,16.46478 -13.221976,27.03302 v 68.44945 c 1.21e-4,18.91501 15.333735,34.24862 34.248744,34.24874 18.915006,-1.2e-4 34.248616,-15.33373 34.248746,-34.24874 v -51.69934 l 89.45045,-69.57047 c 13.1314,-10.21224 16.89854,-28.22406 9.43191,-42.703955 -0.55766,-1.08148 -0.73482,-1.465338 -1.89574,-1.916237 -1.16092,-0.450898 -2.09412,0.05373 -3.25589,0.489648 -1.5953,0.598602 -3.29434,0.910589 -5.01836,0.91071 -7.89066,-1.4e-5 -14.2873,-6.396653 -14.28731,-14.287314 1.4e-4,-1.070805 0.18977,-1.698674 -0.12686,-2.364994 -0.31661,-0.66632 -1.15961,-1.097019 -1.98824,-1.191631 -1.37597,-0.157108 -2.76098,-0.230701 -4.14739,-0.220089 -1.36039,0.0103 -2.39391,-0.111799 -2.98042,-1.106809 -0.58653,-0.995008 -0.27221,-2.135326 -0.27198,-3.939949 -1e-4,-9.811742 -7.95427,-17.765601 -17.76601,-17.765312 z"
       style="color:#000000;font-style:normal;font-variant:normal;font-weight:normal;font-stretch:normal;font-size:medium;line-height:normal;font-family:sans-serif;font-variant-ligatures:normal;font-variant-position:normal;font-variant-caps:normal;font-variant-numeric:normal;font-variant-alternates:normal;font-variant-east-asian:normal;font-feature-settings:normal;font-variation-settings:normal;text-indent:0;text-align:start;text-decoration:none;text-decoration-line:none;text-decoration-style:solid;text-decoration-color:#000000;letter-spacing:normal;word-spacing:normal;text-transform:none;writing-mode:lr-tb;direction:ltr;text-orientation:mixed;dominant-baseline:auto;baseline-shift:baseline;text-anchor:start;white-space:normal;shape-padding:0;shape-margin:0;inline-size:0;clip-rule:nonzero;display:inline;overflow:visible;visibility:visible;opacity:1;isolation:auto;mix-blend-mode:normal;color-interpolation:sRGB;color-interpolation-filters:linearRGB;solid-color:#000000;solid-opacity:1;vector-effect:none;fill:url(#linearGradient1685);fill-opacity:1;fill-rule:nonzero;stroke:none;stroke-width:68.4979;stroke-linecap:round;stroke-linejoin:round;stroke-miterlimit:4;stroke-dasharray:none;stroke-dashoffset:0;stroke-opacity:1;color-rendering:auto;image-rendering:auto;shape-rendering:auto;text-rendering:auto;enable-background:accumulate;stop-color:#000000;stop-opacity:1"
       id="path1632"
       sodipodi:nodetypes="ccszccccccccszscczsczcc" />
    <path
       sodipodi:nodetypes="ccc"
       id="path863"
       d="M 84.127941,88.378963 V 168.23583 L 186.80107,236.6846"
       style="opacity:1;fill:none;fill-opacity:1;stroke:url(#linearGradient873);stroke-width:68.4488;stroke-linecap:round;stroke-linejoin:round;stroke-miterlimit:4;stroke-dasharray:none;stroke-opacity:1" />
    <circle
       r="12.118466"
       cy="34.826405"
       cx="132.44577"
       id="path869-7"
       style="display:inline;fill:#9e8cf4;fill-opacity:1;stroke:none;stroke-width:3.80315;stroke-linecap:round;stroke-linejoin:round;stroke-miterlimit:4;stroke-dasharray:none" />
    <circle
       style="display:inline;fill:#ad9cf6;fill-opacity:1;stroke:none;stroke-width:2.48129;stroke-linecap:round;stroke-linejoin:round;stroke-miterlimit:4;stroke-dasharray:none"
       id="path869-7-5"
       cx="144.01659"
       cy="11.326492"
       r="7.9064698" />
    <circle
       r="5.5204024"
       cy="5.5204024"
       cx="122.4872"
       id="circle1672"
       style="display:inline;fill:#ae9df6;fill-opacity:1;stroke:none;stroke-width:1.73246;stroke-linecap:round;stroke-linejoin:round;stroke-miterlimit:4;stroke-dasharray:none" />
    <circle
       style="display:inline;fill:#8d76f3;fill-opacity:1;stroke:none;stroke-width:3.03964;stroke-linecap:round;stroke-linejoin:round;stroke-miterlimit:4;stroke-dasharray:none"
       id="circle1680"
       cx="207.08965"
       cy="57.907612"
       r="9.6856022" />
  </g>
</svg>
